Willthon/GANMIND_v0.1/001_IgnoreThis_Dec32025_PROGRESS/discriminator_layer3_test.vcd
$date
	Wed Dec 03 20:13:04 2025
$end
$version
	Icarus Verilog
$end
$timescale
	1ps
$end
$scope module layer3_discriminator_tb $end
$var wire 16 ! score_out [15:0] $end
$var wire 1 " done $end
$var wire 1 # decision_real $end
$var reg 1 $ clk $end
$var reg 512 % flat_input [511:0] $end
$var reg 1 & rst $end
$var reg 1 ' start $end
$var integer 32 ( i_pack [31:0] $end
$var integer 32 ) k [31:0] $end
$scope function q8_8_to_real $end
$var reg 16 * val [15:0] $end
$upscope $end
$scope function real_to_q8_8 $end
$var real 1 + val $end
$upscope $end
$scope function sigmoid $end
$var real 1 , exp_neg_x $end
$var real 1 - x $end
$upscope $end
$scope module uut $end
$var wire 1 $ clk $end
$var wire 512 . flat_input_flat [511:0] $end
$var wire 1 & rst $end
$var wire 1 ' start $end
$var wire 512 / weights_flat [511:0] $end
$var wire 16 0 mac_result [15:0] $end
$var wire 1 1 mac_done $end
$var reg 1 # decision_real $end
$var reg 1 " done $end
$var reg 16 2 score_out [15:0] $end
$scope module mac_unit $end
$var wire 512 3 a_flat [511:0] $end
$var wire 512 4 b_flat [511:0] $end
$var wire 16 5 bias [15:0] $end
$var wire 1 $ clk $end
$var wire 1 & rst $end
$var wire 1 ' start $end
$var reg 1 6 d0 $end
$var reg 1 7 d1 $end
$var reg 1 8 d2 $end
$var reg 1 9 d3 $end
$var reg 1 : d4 $end
$var reg 1 ; d5 $end
$var reg 1 < d6 $end
$var reg 1 1 done $end
$var reg 16 = result [15:0] $end
$var reg 32 > total_sum [31:0] $end
$upscope $end
$upscope $end
$upscope $end
$enddefinitions $end
$comment Show the parameter values. $end
$dumpall
$end
#0
$dumpvars
b0 >
b0 =
0<
0;
0:
09
08
07
06
b1111111001110100 5
b1000111111111111011011000000000011000100000000000110110000000000111001000000000011101011111111110101010000000000110110000000000010110011111111110000011111111111100011111111111100101111111111111001111111111111011001111111111101100000000000001101110000000000100000000000000011011011111111110100101111111111011001111111111101011000000000010010000000000000100100111111111101101011111111110101010000000000011101111111111100111111111111110110000000000000100010000000000011110100000000001111011111111111011110 4
bx 3
b0 2
01
b0 0
b1000111111111111011011000000000011000100000000000110110000000000111001000000000011101011111111110101010000000000110110000000000010110011111111110000011111111111100011111111111100101111111111111001111111111111011001111111111101100000000000001101110000000000100000000000000011011011111111110100101111111111011001111111111101011000000000010010000000000000100100111111111101101011111111110101010000000000011101111111111100111111111111110110000000000000100010000000000011110100000000001111011111111111011110 /
bx .
r0 -
r0 ,
r0 +
bx *
bx )
bx (
0'
1&
bx %
0$
0#
0"
b0 !
$end
#5000
1$
#10000
0$
#15000
1$
#20000
b0 %
b0 .
b0 3
b100000 (
0$
b100000 )
0&
#25000
16
1'
1$
#30000
0$
#35000
17
06
0'
1$
#40000
0$
#45000
18
07
1$
#50000
0$
#55000
19
08
1$
#60000
0$
#65000
1:
09
1$
#70000
0$
#75000
1;
0:
1$
#80000
0$
#85000
1<
b11111111111111100111010000000000 >
0;
1$
#90000
0$
#95000
11
b1111111001110100 0
b1111111001110100 =
0<
1$
#100000
0$
#105000
b1111111001110100 !
b1111111001110100 2
1"
01
1$
#110000
0$
#115000
0"
1$
#116000
b1100100000000000110010000000000011001000000000001100100000000000110010000000000011001000000000001100100000000000110010000000000011001000000000001100100000000000110010000000000011001000000000001100100000000000110010000000000011001000000000001100100000000000110010000000000011001000000000001100100000000000110010000000000011001000000000001100100000000000110010000000000011001000000000001100100000000000110010000000000011001000000000001100100000000000110010000000000011001000000000001100100000000000110010 %
b1100100000000000110010000000000011001000000000001100100000000000110010000000000011001000000000001100100000000000110010000000000011001000000000001100100000000000110010000000000011001000000000001100100000000000110010000000000011001000000000001100100000000000110010000000000011001000000000001100100000000000110010000000000011001000000000001100100000000000110010000000000011001000000000001100100000000000110010000000000011001000000000001100100000000000110010000000000011001000000000001100100000000000110010 .
b1100100000000000110010000000000011001000000000001100100000000000110010000000000011001000000000001100100000000000110010000000000011001000000000001100100000000000110010000000000011001000000000001100100000000000110010000000000011001000000000001100100000000000110010000000000011001000000000001100100000000000110010000000000011001000000000001100100000000000110010000000000011001000000000001100100000000000110010000000000011001000000000001100100000000000110010000000000011001000000000001100100000000000110010 3
b100000 (
b100000 )
r0.1755380736612351 +
r4.696769818323661 ,
r-1.546875 -
b1111111001110100 *
#120000
0$
#125000
16
1'
1$
#130000
0$
#135000
17
06
0'
1$
#140000
0$
#145000
18
07
1$
#150000
0$
#155000
19
08
1$
#160000
0$
#165000
1:
09
1$
#170000
0$
#175000
1;
0:
1$
#180000
0$
#185000
1<
b11111111111111101000011100100100 >
0;
1$
#190000
0$
#195000
11
b1111111010000111 0
b1111111010000111 =
0<
1$
#200000
0$
#205000
b1111111010000111 !
b1111111010000111 2
1"
01
1$
#210000
0$
#215000
0"
1$
#216000
b1100100000000000110010000000000011001000000000001100100000000000110010000000000011001000000000001100100000000000110010000000000011001000000000001100100000000000110010000000000011001000000000001100100000000000110010000000000011001000000000001100100000000000110010000000000011001000000000001100100000000000110010000000000011001000000000001100100000000000110010000000000011001000000000001100100000000000110010000000000011001000000000001100100000000000110010000000000011001000000000001100100000000000110010000000000 %
b1100100000000000110010000000000011001000000000001100100000000000110010000000000011001000000000001100100000000000110010000000000011001000000000001100100000000000110010000000000011001000000000001100100000000000110010000000000011001000000000001100100000000000110010000000000011001000000000001100100000000000110010000000000011001000000000001100100000000000110010000000000011001000000000001100100000000000110010000000000011001000000000001100100000000000110010000000000011001000000000001100100000000000110010000000000 .
b1100100000000000110010000000000011001000000000001100100000000000110010000000000011001000000000001100100000000000110010000000000011001000000000001100100000000000110010000000000011001000000000001100100000000000110010000000000011001000000000001100100000000000110010000000000011001000000000001100100000000000110010000000000011001000000000001100100000000000110010000000000011001000000000001100100000000000110010000000000011001000000000001100100000000000110010000000000011001000000000001100100000000000110010000000000 3
b100000 (
b100000 )
r0.1865392127819707 +
r4.360803152787035 ,
r-1.47265625 -
b1111111010000111 *
#220000
0$
#225000
16
1'
1$
#230000
0$
#235000
17
06
0'
1$
#240000
0$
#245000
18
07
1$
#250000
0$
#255000
19
08
1$
#260000
0$
#265000
1:
09
1$
#270000
0$
#275000
1;
0:
1$
#280000
0$
#285000
1<
b1001001011110000000000 >
0;
1$
#290000
0$
#295000
11
b10010010111100 0
b10010010111100 =
0<
1$
#300000
0$
#305000
1#
b10010010111100 !
b10010010111100 2
1"
01
1$
#310000
0$
#315000
0"
1$
#316000
r0.9999999999999998 +
r1.112919223411195e-16 ,
r36.734375 -
b10010010111100 *
