Willthon/GANMIND_v0.1/001_IgnoreThis_Dec32025_PROGRESS/layer1_test_simple.vcd
$date
	Sat Nov 29 20:04:55 2025
$end
$version
	Icarus Verilog
$end
$timescale
	1ps
$end
$scope module layer1_test_simple $end
$var wire 4096 ! flat_output_flat [4095:0] $end
$var wire 1 " done $end
$var parameter 32 # CLK_PERIOD $end
$var parameter 32 $ DATA_WIDTH $end
$var parameter 32 % INPUT_SIZE $end
$var parameter 32 & OUTPUT_SIZE $end
$var reg 1 ' clk $end
$var reg 1024 ( flat_input_flat [1023:0] $end
$var reg 1 ) rst $end
$var reg 1 * start $end
$scope module dut $end
$var wire 1 ' clk $end
$var wire 1024 + flat_input_flat [1023:0] $end
$var wire 1 ) rst $end
$var wire 1 * start $end
$var wire 32 , next_acc [31:0] $end
$var wire 32 - current_product [31:0] $end
$var wire 16 . current_input [15:0] $end
$var reg 32 / accumulator [31:0] $end
$var reg 1 0 busy $end
$var reg 1 " done $end
$var reg 4096 1 flat_output_flat [4095:0] $end
$var reg 7 2 input_idx [6:0] $end
$var reg 9 3 neuron_idx [8:0] $end
$var integer 32 4 i [31:0] $end
$var integer 32 5 j [31:0] $end
$upscope $end
$scope begin $ivl_for_loop0 $end
$var integer 32 6 i [31:0] $end
$upscope $end
$scope begin $ivl_for_loop1 $end
$var integer 32 7 i [31:0] $end
$upscope $end
$upscope $end
$enddefinitions $end
$comment Show the parameter values. $end
$dumpall
b100000000 &
b1000000 %
b10000 $
b1010 #
$end
#0
$dumpvars
bx 7
bx 6
b1000000 5
b100000000 4
b0 3
b0 2
bx 1
00
b0 /
b0 .
b0 -
b0 ,
b0 +
0*
1)
b0 (
0'
0"
bx !
$end
#5000
1'
#10000
0'
#15000
1'
#20000
0'
0)
#25000
1'
#30000
0'
1*
b1010 ,
b1010 -
b1010 .
b1010000000000000100111011000000010011011000000001001100010000000100101100000000010010011100000001001000100000000100011101000000010001100000000001000100110000000100001110000000010000100100000001000001000000000011111111000000001111101000000000111101010000000011110000000000001110101100000000111001100000000011100001000000001101110000000000110101110000000011010010000000001100110100000000110010000000000011000011000000001011111000000000101110010000000010110100000000001010111100000000101010100000000010100101000000001010000000000000100110110000000010010110000000001001000100000000100011000000000010000111000000001000001000000000011111010000000001111000000000000111001100000000011011100000000001101001000000000110010000000000010111110000000001011010000000000101010100000000010100000000000001001011000000000100011000000000010000010000000000111100000000000011011100000000001100100000000000101101000000000010100000000000001000110000000000011110000000000001100100000000000101000000000000001111000000000000101000000000000001010 (
b1010000000000000100111011000000010011011000000001001100010000000100101100000000010010011100000001001000100000000100011101000000010001100000000001000100110000000100001110000000010000100100000001000001000000000011111111000000001111101000000000111101010000000011110000000000001110101100000000111001100000000011100001000000001101110000000000110101110000000011010010000000001100110100000000110010000000000011000011000000001011111000000000101110010000000010110100000000001010111100000000101010100000000010100101000000001010000000000000100110110000000010010110000000001001000100000000100011000000000010000111000000001000001000000000011111010000000001111000000000000111001100000000011011100000000001101001000000000110010000000000010111110000000001011010000000000101010100000000010100000000000001001011000000000100011000000000010000010000000000111100000000000011011100000000001100100000000000101101000000000010100000000000001000110000000000011110000000000001100100000000000101000000000000001111000000000000101000000000000001010 +
b1000000 6
#35000
10
b101000001010 ,
b101000000000 /
1'
#40000
0'
0*
#45000
b10100 -
b10100 .
b1 2
b101000011110 ,
b101000001010 /
1'
#50000
0'
#55000
b11110 -
b11110 .
b10 2
b101000111100 ,
b101000011110 /
1'
#60000
0'
#65000
b101000 -
b101000 .
b11 2
b101001100100 ,
b101000111100 /
1'
#70000
0'
#75000
b110010 -
b110010 .
b100 2
b101010010110 ,
b101001100100 /
1'
#80000
0'
#85000
b111100 -
b111100 .
b101 2
b101011010010 ,
b101010010110 /
1'
#90000
0'
#95000
b1000110 -
b1000110 .
b110 2
b101100011000 ,
b101011010010 /
1'
#100000
0'
#105000
b1010000 -
b1010000 .
b111 2
b101101101000 ,
b101100011000 /
1'
#110000
0'
#115000
b1011010 -
b1011010 .
b1000 2
b101111000010 ,
b101101101000 /
1'
#120000
0'
#125000
b1100100 -
b1100100 .
b1001 2
b110000100110 ,
b101111000010 /
1'
#130000
0'
#135000
b1101110 -
b1101110 .
b1010 2
b110010010100 ,
b110000100110 /
1'
#140000
0'
#145000
b1111000 -
b1111000 .
b1011 2
b110100001100 ,
b110010010100 /
1'
#150000
0'
#155000
b10000010 -
b10000010 .
b1100 2
b110110001110 ,
b110100001100 /
1'
#160000
0'
#165000
b10001100 -
b10001100 .
b1101 2
b111000011010 ,
b110110001110 /
1'
#170000
0'
#175000
b10010110 -
b10010110 .
b1110 2
b111010110000 ,
b111000011010 /
1'
#180000
0'
#185000
b10100000 -
b10100000 .
b1111 2
b111101010000 ,
b111010110000 /
1'
#190000
0'
#195000
b10101010 -
b10101010 .
b10000 2
b111111111010 ,
b111101010000 /
1'
#200000
0'
#205000
b10110100 -
b10110100 .
b10001 2
b1000010101110 ,
b111111111010 /
1'
#210000
0'
#215000
b10111110 -
b10111110 .
b10010 2
b1000101101100 ,
b1000010101110 /
1'
#220000
0'
#225000
b11001000 -
b11001000 .
b10011 2
b1001000110100 ,
b1000101101100 /
1'
#230000
0'
#235000
b11010010 -
b11010010 .
b10100 2
b1001100000110 ,
b1001000110100 /
1'
#240000
0'
#245000
b11011100 -
b11011100 .
b10101 2
b1001111100010 ,
b1001100000110 /
1'
#250000
0'
#255000
b11100110 -
b11100110 .
b10110 2
b1010011001000 ,
b1001111100010 /
1'
#260000
0'
#265000
b11110000 -
b11110000 .
b10111 2
b1010110111000 ,
b1010011001000 /
1'
#270000
0'
#275000
b11111010 -
b11111010 .
b11000 2
b1011010110010 ,
b1010110111000 /
1'
#280000
0'
#285000
b100000100 -
b100000100 .
b11001 2
b1011110110110 ,
b1011010110010 /
1'
#290000
0'
#295000
b100001110 -
b100001110 .
b11010 2
b1100011000100 ,
b1011110110110 /
1'
#300000
0'
#305000
b100011000 -
b100011000 .
b11011 2
b1100111011100 ,
b1100011000100 /
1'
#310000
0'
#315000
b100100010 -
b100100010 .
b11100 2
b1101011111110 ,
b1100111011100 /
1'
#320000
0'
#325000
b100101100 -
b100101100 .
b11101 2
b1110000101010 ,
b1101011111110 /
1'
#330000
0'
#335000
b100110110 -
b100110110 .
b11110 2
b1110101100000 ,
b1110000101010 /
1'
#340000
0'
#345000
b101000000 -
b101000000 .
b11111 2
b1111010100000 ,
b1110101100000 /
1'
#350000
0'
#355000
b101001010 -
b101001010 .
b100000 2
b1111111101010 ,
b1111010100000 /
1'
#360000
0'
#365000
b101010100 -
b101010100 .
b100001 2
b10000100111110 ,
b1111111101010 /
1'
#370000
0'
#375000
b101011110 -
b101011110 .
b100010 2
b10001010011100 ,
b10000100111110 /
1'
#380000
0'
#385000
b101101000 -
b101101000 .
b100011 2
b10010000000100 ,
b10001010011100 /
1'
#390000
0'
#395000
b101110010 -
b101110010 .
b100100 2
b10010101110110 ,
b10010000000100 /
1'
#400000
0'
#405000
b101111100 -
b101111100 .
b100101 2
b10011011110010 ,
b10010101110110 /
1'
#410000
0'
#415000
b110000110 -
b110000110 .
b100110 2
b10100001111000 ,
b10011011110010 /
1'
#420000
0'
#425000
b110010000 -
b110010000 .
b100111 2
b10101000001000 ,
b10100001111000 /
1'
#430000
0'
#435000
b110011010 -
b110011010 .
b101000 2
b10101110100010 ,
b10101000001000 /
1'
#440000
0'
#445000
b110100100 -
b110100100 .
b101001 2
b10110101000110 ,
b10101110100010 /
1'
#450000
0'
#455000
b110101110 -
b110101110 .
b101010 2
b10111011110100 ,
b10110101000110 /
1'
#460000
0'
#465000
b110111000 -
b110111000 .
b101011 2
b11000010101100 ,
b10111011110100 /
1'
#470000
0'
#475000
b111000010 -
b111000010 .
b101100 2
b11001001101110 ,
b11000010101100 /
1'
#480000
0'
#485000
b111001100 -
b111001100 .
b101101 2
b11010000111010 ,
b11001001101110 /
1'
#490000
0'
#495000
b111010110 -
b111010110 .
b101110 2
b11011000010000 ,
b11010000111010 /
1'
#500000
0'
#505000
b111100000 -
b111100000 .
b101111 2
b11011111110000 ,
b11011000010000 /
1'
#510000
0'
#515000
b111101010 -
b111101010 .
b110000 2
b11100111011010 ,
b11011111110000 /
1'
#520000
0'
#525000
b111110100 -
b111110100 .
b110001 2
b11101111001110 ,
b11100111011010 /
1'
#530000
0'
#535000
b111111110 -
b111111110 .
b110010 2
b11110111001100 ,
b11101111001110 /
1'
#540000
0'
#545000
b1000001000 -
b1000001000 .
b110011 2
b11111111010100 ,
b11110111001100 /
1'
#550000
0'
#555000
b1000010010 -
b1000010010 .
b110100 2
b100000111100110 ,
b11111111010100 /
1'
#560000
0'
#565000
b1000011100 -
b1000011100 .
b110101 2
b100010000000010 ,
b100000111100110 /
1'
#570000
0'
#575000
b1000100110 -
b1000100110 .
b110110 2
b100011000101000 ,
b100010000000010 /
1'
#580000
0'
#585000
b1000110000 -
b1000110000 .
b110111 2
b100100001011000 ,
b100011000101000 /
1'
#590000
0'
#595000
b1000111010 -
b1000111010 .
b111000 2
b100101010010010 ,
b100100001011000 /
1'
#600000
0'
#605000
b1001000100 -
b1001000100 .
b111001 2
b100110011010110 ,
b100101010010010 /
1'
#610000
0'
#615000
b1001001110 -
b1001001110 .
b111010 2
b100111100100100 ,
b100110011010110 /
1'
#620000
0'
#625000
b1001011000 -
b1001011000 .
b111011 2
b101000101111100 ,
b100111100100100 /
1'
#630000
0'
#635000
b1001100010 -
b1001100010 .
b111100 2
b101001111011110 ,
b101000101111100 /
1'
#640000
0'
#645000
b1001101100 -
b1001101100 .
b111101 2
b101011001001010 ,
b101001111011110 /
1'
#650000
0'
#655000
b1001110110 -
b1001110110 .
b111110 2
b101100011000000 ,
b101011001001010 /
1'
#660000
0'
#665000
b1010000000 -
b1010000000 .
b111111 2
b101101101000000 ,
b101100011000000 /
1'
#670000
0'
#675000
b1010 -
b1010 .
b0 2
b1 3
bx0000000001011011 !
bx0000000001011011 1
b101000001010 ,
b101000000000 /
1'
#680000
0'
#685000
b10100 -
b10100 .
b1 2
b101000011110 ,
b101000001010 /
1'
#690000
0'
#695000
b11110 -
b11110 .
b10 2
b101000111100 ,
b101000011110 /
1'
#700000
0'
#705000
b101000 -
b101000 .
b11 2
b101001100100 ,
b101000111100 /
1'
#710000
0'
#715000
b110010 -
b110010 .
b100 2
b101010010110 ,
b101001100100 /
1'
#720000
0'
#725000
b111100 -
b111100 .
b101 2
b101011010010 ,
b101010010110 /
1'
#730000
0'
#735000
b1000110 -
b1000110 .
b110 2
b101100011000 ,
b101011010010 /
1'
#740000
0'
#745000
b1010000 -
b1010000 .
b111 2
b101101101000 ,
b101100011000 /
1'
#750000
0'
#755000
b1011010 -
b1011010 .
b1000 2
b101111000010 ,
b101101101000 /
1'
#760000
0'
#765000
b1100100 -
b1100100 .
b1001 2
b110000100110 ,
b101111000010 /
1'
#770000
0'
#775000
b1101110 -
b1101110 .
b1010 2
b110010010100 ,
b110000100110 /
1'
#780000
0'
#785000
b1111000 -
b1111000 .
b1011 2
b110100001100 ,
b110010010100 /
1'
#790000
0'
#795000
b10000010 -
b10000010 .
b1100 2
b110110001110 ,
b110100001100 /
1'
#800000
0'
#805000
b10001100 -
b10001100 .
b1101 2
b111000011010 ,
b110110001110 /
1'
#810000
0'
#815000
b10010110 -
b10010110 .
b1110 2
b111010110000 ,
b111000011010 /
1'
#820000
0'
#825000
b10100000 -
b10100000 .
b1111 2
b111101010000 ,
b111010110000 /
1'
#830000
0'
#835000
b10101010 -
b10101010 .
b10000 2
b111111111010 ,
b111101010000 /
1'
#840000
0'
#845000
b10110100 -
b10110100 .
b10001 2
b1000010101110 ,
b111111111010 /
1'
#850000
0'
#855000
b10111110 -
b10111110 .
b10010 2
b1000101101100 ,
b1000010101110 /
1'
#860000
0'
#865000
b11001000 -
b11001000 .
b10011 2
b1001000110100 ,
b1000101101100 /
1'
#870000
0'
#875000
b11010010 -
b11010010 .
b10100 2
b1001100000110 ,
b1001000110100 /
1'
#880000
0'
#885000
b11011100 -
b11011100 .
b10101 2
b1001111100010 ,
b1001100000110 /
1'
#890000
0'
#895000
b11100110 -
b11100110 .
b10110 2
b1010011001000 ,
b1001111100010 /
1'
#900000
0'
#905000
b11110000 -
b11110000 .
b10111 2
b1010110111000 ,
b1010011001000 /
1'
#910000
0'
#915000
b11111010 -
b11111010 .
b11000 2
b1011010110010 ,
b1010110111000 /
1'
#920000
0'
#925000
b100000100 -
b100000100 .
b11001 2
b1011110110110 ,
b1011010110010 /
1'
#930000
0'
#935000
b100001110 -
b100001110 .
b11010 2
b1100011000100 ,
b1011110110110 /
1'
#940000
0'
#945000
b100011000 -
b100011000 .
b11011 2
b1100111011100 ,
b1100011000100 /
1'
#950000
0'
#955000
b100100010 -
b100100010 .
b11100 2
b1101011111110 ,
b1100111011100 /
1'
#960000
0'
#965000
b100101100 -
b100101100 .
b11101 2
b1110000101010 ,
b1101011111110 /
1'
#970000
0'
#975000
b100110110 -
b100110110 .
b11110 2
b1110101100000 ,
b1110000101010 /
1'
#980000
0'
#985000
b101000000 -
b101000000 .
b11111 2
b1111010100000 ,
b1110101100000 /
1'
#990000
0'
#995000
b101001010 -
b101001010 .
b100000 2
b1111111101010 ,
b1111010100000 /
1'
#1000000
0'
#1005000
b101010100 -
b101010100 .
b100001 2
b10000100111110 ,
b1111111101010 /
1'
#1010000
0'
#1015000
b101011110 -
b101011110 .
b100010 2
b10001010011100 ,
b10000100111110 /
1'
#1020000
0'
#1025000
b101101000 -
b101101000 .
b100011 2
b10010000000100 ,
b10001010011100 /
1'
#1030000
0'
#1035000
b101110010 -
b101110010 .
b100100 2
b10010101110110 ,
b10010000000100 /
1'
#1040000
0'
#1045000
b101111100 -
b101111100 .
b100101 2
b10011011110010 ,
b10010101110110 /
1'
#1050000
0'
#1055000
b110000110 -
b110000110 .
b100110 2
b10100001111000 ,
b10011011110010 /
1'
#1060000
0'
#1065000
b110010000 -
b110010000 .
b100111 2
b10101000001000 ,
b10100001111000 /
1'
#1070000
0'
#1075000
b110011010 -
b110011010 .
b101000 2
b10101110100010 ,
b10101000001000 /
1'
#1080000
0'
#1085000
b110100100 -
b110100100 .
b101001 2
b10110101000110 ,
b10101110100010 /
1'
#1090000
0'
#1095000
b110101110 -
b110101110 .
b101010 2
b10111011110100 ,
b10110101000110 /
1'
#1100000
0'
#1105000
b110111000 -
b110111000 .
b101011 2
b11000010101100 ,
b10111011110100 /
1'
#1110000
0'
#1115000
b111000010 -
b111000010 .
b101100 2
b11001001101110 ,
b11000010101100 /
1'
#1120000
0'
#1125000
b111001100 -
b111001100 .
b101101 2
b11010000111010 ,
b11001001101110 /
1'
#1130000
0'
#1135000
b111010110 -
b111010110 .
b101110 2
b11011000010000 ,
b11010000111010 /
1'
#1140000
0'
#1145000
b111100000 -
b111100000 .
b101111 2
b11011111110000 ,
b11011000010000 /
1'
#1150000
0'
#1155000
b111101010 -
b111101010 .
b110000 2
b11100111011010 ,
b11011111110000 /
1'
#1160000
0'
#1165000
b111110100 -
b111110100 .
b110001 2
b11101111001110 ,
b11100111011010 /
1'
#1170000
0'
#1175000
b111111110 -
b111111110 .
b110010 2
b11110111001100 ,
b11101111001110 /
1'
#1180000
0'
#1185000
b1000001000 -
b1000001000 .
b110011 2
b11111111010100 ,
b11110111001100 /
1'
#1190000
0'
#1195000
b1000010010 -
b1000010010 .
b110100 2
b100000111100110 ,
b11111111010100 /
1'
#1200000
0'
#1205000
b1000011100 -
b1000011100 .
b110101 2
b100010000000010 ,
b100000111100110 /
1'
#1210000
0'
#1215000
b1000100110 -
b1000100110 .
b110110 2
b100011000101000 ,
b100010000000010 /
1'
#1220000
0'
#1225000
b1000110000 -
b1000110000 .
b110111 2
b100100001011000 ,
b100011000101000 /
1'
#1230000
0'
#1235000
b1000111010 -
b1000111010 .
b111000 2
b100101010010010 ,
b100100001011000 /
1'
#1240000
0'
#1245000
b1001000100 -
b1001000100 .
b111001 2
b100110011010110 ,
b100101010010010 /
1'
#1250000
0'
#1255000
b1001001110 -
b1001001110 .
b111010 2
b100111100100100 ,
b100110011010110 /
1'
#1260000
0'
#1265000
b1001011000 -
b1001011000 .
b111011 2
b101000101111100 ,
b100111100100100 /
1'
#1270000
0'
#1275000
b1001100010 -
b1001100010 .
b111100 2
b101001111011110 ,
b101000101111100 /
1'
#1280000
0'
#1285000
b1001101100 -
b1001101100 .
b111101 2
b101011001001010 ,
b101001111011110 /
1'
#1290000
0'
#1295000
b1001110110 -
b1001110110 .
b111110 2
b101100011000000 ,
b101011001001010 /
1'
#1300000
0'
#1305000
b1010000000 -
b1010000000 .
b111111 2
b101101101000000 ,
b101100011000000 /
1'
#1310000
0'
#1315000
b1010 -
b1010 .
b0 2
b10 3
bx00000000010110110000000001011011 !
bx00000000010110110000000001011011 1
b101000001010 ,
b101000000000 /
1'
#1320000
0'
#1325000
b10100 -
b10100 .
b1 2
b101000011110 ,
b101000001010 /
1'
#1330000
0'
#1335000
b11110 -
b11110 .
b10 2
b101000111100 ,
b101000011110 /
1'
#1340000
0'
#1345000
b101000 -
b101000 .
b11 2
b101001100100 ,
b101000111100 /
1'
#1350000
0'
#1355000
b110010 -
b110010 .
b100 2
b101010010110 ,
b101001100100 /
1'
#1360000
0'
#1365000
b111100 -
b111100 .
b101 2
b101011010010 ,
b101010010110 /
1'
#1370000
0'
#1375000
b1000110 -
b1000110 .
b110 2
b101100011000 ,
b101011010010 /
1'
#1380000
0'
#1385000
b1010000 -
b1010000 .
b111 2
b101101101000 ,
b101100011000 /
1'
#1390000
0'
#1395000
b1011010 -
b1011010 .
b1000 2
b101111000010 ,
b101101101000 /
1'
#1400000
0'
#1405000
b1100100 -
b1100100 .
b1001 2
b110000100110 ,
b101111000010 /
1'
#1410000
0'
#1415000
b1101110 -
b1101110 .
b1010 2
b110010010100 ,
b110000100110 /
1'
#1420000
0'
#1425000
b1111000 -
b1111000 .
b1011 2
b110100001100 ,
b110010010100 /
1'
#1430000
0'
#1435000
b10000010 -
b10000010 .
b1100 2
b110110001110 ,
b110100001100 /
1'
#1440000
0'
#1445000
b10001100 -
b10001100 .
b1101 2
b111000011010 ,
b110110001110 /
1'
#1450000
0'
#1455000
b10010110 -
b10010110 .
b1110 2
b111010110000 ,
b111000011010 /
1'
#1460000
0'
#1465000
b10100000 -
b10100000 .
b1111 2
b111101010000 ,
b111010110000 /
1'
#1470000
0'
#1475000
b10101010 -
b10101010 .
b10000 2
b111111111010 ,
b111101010000 /
1'
#1480000
0'
#1485000
b10110100 -
b10110100 .
b10001 2
b1000010101110 ,
b111111111010 /
1'
#1490000
0'
#1495000
b10111110 -
b10111110 .
b10010 2
b1000101101100 ,
b1000010101110 /
1'
#1500000
0'
#1505000
b11001000 -
b11001000 .
b10011 2
b1001000110100 ,
b1000101101100 /
1'
#1510000
0'
#1515000
b11010010 -
b11010010 .
b10100 2
b1001100000110 ,
b1001000110100 /
1'
#1520000
0'
#1525000
b11011100 -
b11011100 .
b10101 2
b1001111100010 ,
b1001100000110 /
1'
#1530000
0'
#1535000
b11100110 -
b11100110 .
b10110 2
b1010011001000 ,
b1001111100010 /
1'
#1540000
0'
#1545000
b11110000 -
b11110000 .
b10111 2
b1010110111000 ,
b1010011001000 /
1'
#1550000
0'
#1555000
b11111010 -
b11111010 .
b11000 2
b1011010110010 ,
b1010110111000 /
1'
#1560000
0'
#1565000
b100000100 -
b100000100 .
b11001 2
b1011110110110 ,
b1011010110010 /
1'
#1570000
0'
#1575000
b100001110 -
b100001110 .
b11010 2
b1100011000100 ,
b1011110110110 /
1'
#1580000
0'
#1585000
b100011000 -
b100011000 .
b11011 2
b1100111011100 ,
b1100011000100 /
1'
#1590000
0'
#1595000
b100100010 -
b100100010 .
b11100 2
b1101011111110 ,
b1100111011100 /
1'
#1600000
0'
#1605000
b100101100 -
b100101100 .
b11101 2
b1110000101010 ,
b1101011111110 /
1'
#1610000
0'
#1615000
b100110110 -
b100110110 .
b11110 2
b1110101100000 ,
b1110000101010 /
1'
#1620000
0'
#1625000
b101000000 -
b101000000 .
b11111 2
b1111010100000 ,
b1110101100000 /
1'
#1630000
0'
#1635000
b101001010 -
b101001010 .
b100000 2
b1111111101010 ,
b1111010100000 /
1'
#1640000
0'
#1645000
b101010100 -
b101010100 .
b100001 2
b10000100111110 ,
b1111111101010 /
1'
#1650000
0'
#1655000
b101011110 -
b101011110 .
b100010 2
b10001010011100 ,
b10000100111110 /
1'
#1660000
0'
#1665000
b101101000 -
b101101000 .
b100011 2
b10010000000100 ,
b10001010011100 /
1'
#1670000
0'
#1675000
b101110010 -
b101110010 .
b100100 2
b10010101110110 ,
b10010000000100 /
1'
#1680000
0'
#1685000
b101111100 -
b101111100 .
b100101 2
b10011011110010 ,
b10010101110110 /
1'
#1690000
0'
#1695000
b110000110 -
b110000110 .
b100110 2
b10100001111000 ,
b10011011110010 /
1'
#1700000
0'
#1705000
b110010000 -
b110010000 .
b100111 2
b10101000001000 ,
b10100001111000 /
1'
#1710000
0'
#1715000
b110011010 -
b110011010 .
b101000 2
b10101110100010 ,
b10101000001000 /
1'
#1720000
0'
#1725000
b110100100 -
b110100100 .
b101001 2
b10110101000110 ,
b10101110100010 /
1'
#1730000
0'
#1735000
b110101110 -
b110101110 .
b101010 2
b10111011110100 ,
b10110101000110 /
1'
#1740000
0'
#1745000
b110111000 -
b110111000 .
b101011 2
b11000010101100 ,
b10111011110100 /
1'
#1750000
0'
#1755000
b111000010 -
b111000010 .
b101100 2
b11001001101110 ,
b11000010101100 /
1'
#1760000
0'
#1765000
b111001100 -
b111001100 .
b101101 2
b11010000111010 ,
b11001001101110 /
1'
#1770000
0'
#1775000
b111010110 -
b111010110 .
b101110 2
b11011000010000 ,
b11010000111010 /
1'
#1780000
0'
#1785000
b111100000 -
b111100000 .
b101111 2
b11011111110000 ,
b11011000010000 /
1'
#1790000
0'
#1795000
b111101010 -
b111101010 .
b110000 2
b11100111011010 ,
b11011111110000 /
1'
#1800000
0'
#1805000
b111110100 -
b111110100 .
b110001 2
b11101111001110 ,
b11100111011010 /
1'
#1810000
0'
#1815000
b111111110 -
b111111110 .
b110010 2
b11110111001100 ,
b11101111001110 /
1'
#1820000
0'
#1825000
b1000001000 -
b1000001000 .
b110011 2
b11111111010100 ,
b11110111001100 /
1'
#1830000
0'
#1835000
b1000010010 -
b1000010010 .
b110100 2
b100000111100110 ,
b11111111010100 /
1'
#1840000
0'
#1845000
b1000011100 -
b1000011100 .
b110101 2
b100010000000010 ,
b100000111100110 /
1'
#1850000
0'
#1855000
b1000100110 -
b1000100110 .
b110110 2
b100011000101000 ,
b100010000000010 /
1'
#1860000
0'
#1865000
b1000110000 -
b1000110000 .
b110111 2
b100100001011000 ,
b100011000101000 /
1'
#1870000
0'
#1875000
b1000111010 -
b1000111010 .
b111000 2
b100101010010010 ,
b100100001011000 /
1'
#1880000
0'
#1885000
b1001000100 -
b1001000100 .
b111001 2
b100110011010110 ,
b100101010010010 /
1'
#1890000
0'
#1895000
b1001001110 -
b1001001110 .
b111010 2
b100111100100100 ,
b100110011010110 /
1'
#1900000
0'
#1905000
b1001011000 -
b1001011000 .
b111011 2
b101000101111100 ,
b100111100100100 /
1'
#1910000
0'
#1915000
b1001100010 -
b1001100010 .
b111100 2
b101001111011110 ,
b101000101111100 /
1'
#1920000
0'
#1925000
b1001101100 -
b1001101100 .
b111101 2
b101011001001010 ,
b101001111011110 /
1'
#1930000
0'
#1935000
b1001110110 -
b1001110110 .
b111110 2
b101100011000000 ,
b101011001001010 /
1'
#1940000
0'
#1945000
b1010000000 -
b1010000000 .
b111111 2
b101101101000000 ,
b101100011000000 /
1'
#1950000
0'
#1955000
b1010 -
b1010 .
b0 2
b11 3
bx000000000101101100000000010110110000000001011011 !
bx000000000101101100000000010110110000000001011011 1
b101000001010 ,
b101000000000 /
1'
#1960000
0'
#1965000
b10100 -
b10100 .
b1 2
b101000011110 ,
b101000001010 /
1'
#1970000
0'
#1975000
b11110 -
b11110 .
b10 2
b101000111100 ,
b101000011110 /
1'
#1980000
0'
#1985000
b101000 -
b101000 .
b11 2
b101001100100 ,
b101000111100 /
1'
#1990000
0'
#1995000
b110010 -
b110010 .
b100 2
b101010010110 ,
b101001100100 /
1'
#2000000
0'
#2005000
b111100 -
b111100 .
b101 2
b101011010010 ,
b101010010110 /
1'
#2010000
0'
#2015000
b1000110 -
b1000110 .
b110 2
b101100011000 ,
b101011010010 /
1'
#2020000
0'
#2025000
b1010000 -
b1010000 .
b111 2
b101101101000 ,
b101100011000 /
1'
#2030000
0'
#2035000
b1011010 -
b1011010 .
b1000 2
b101111000010 ,
b101101101000 /
1'
#2040000
0'
#2045000
b1100100 -
b1100100 .
b1001 2
b110000100110 ,
b101111000010 /
1'
#2050000
0'
#2055000
b1101110 -
b1101110 .
b1010 2
b110010010100 ,
b110000100110 /
1'
#2060000
0'
#2065000
b1111000 -
b1111000 .
b1011 2
b110100001100 ,
b110010010100 /
1'
#2070000
0'
#2075000
b10000010 -
b10000010 .
b1100 2
b110110001110 ,
b110100001100 /
1'
#2080000
0'
#2085000
b10001100 -
b10001100 .
b1101 2
b111000011010 ,
b110110001110 /
1'
#2090000
0'
#2095000
b10010110 -
b10010110 .
b1110 2
b111010110000 ,
b111000011010 /
1'
#2100000
0'
#2105000
b10100000 -
b10100000 .
b1111 2
b111101010000 ,
b111010110000 /
1'
#2110000
0'
#2115000
b10101010 -
b10101010 .
b10000 2
b111111111010 ,
b111101010000 /
1'
#2120000
0'
#2125000
b10110100 -
b10110100 .
b10001 2
b1000010101110 ,
b111111111010 /
1'
#2130000
0'
#2135000
b10111110 -
b10111110 .
b10010 2
b1000101101100 ,
b1000010101110 /
1'
#2140000
0'
#2145000
b11001000 -
b11001000 .
b10011 2
b1001000110100 ,
b1000101101100 /
1'
#2150000
0'
#2155000
b11010010 -
b11010010 .
b10100 2
b1001100000110 ,
b1001000110100 /
1'
#2160000
0'
#2165000
b11011100 -
b11011100 .
b10101 2
b1001111100010 ,
b1001100000110 /
1'
#2170000
0'
#2175000
b11100110 -
b11100110 .
b10110 2
b1010011001000 ,
b1001111100010 /
1'
#2180000
0'
#2185000
b11110000 -
b11110000 .
b10111 2
b1010110111000 ,
b1010011001000 /
1'
#2190000
0'
#2195000
b11111010 -
b11111010 .
b11000 2
b1011010110010 ,
b1010110111000 /
1'
#2200000
0'
#2205000
b100000100 -
b100000100 .
b11001 2
b1011110110110 ,
b1011010110010 /
1'
#2210000
0'
#2215000
b100001110 -
b100001110 .
b11010 2
b1100011000100 ,
b1011110110110 /
1'
#2220000
0'
#2225000
b100011000 -
b100011000 .
b11011 2
b1100111011100 ,
b1100011000100 /
1'
#2230000
0'
#2235000
b100100010 -
b100100010 .
b11100 2
b1101011111110 ,
b1100111011100 /
1'
#2240000
0'
#2245000
b100101100 -
b100101100 .
b11101 2
b1110000101010 ,
b1101011111110 /
1'
#2250000
0'
#2255000
b100110110 -
b100110110 .
b11110 2
b1110101100000 ,
b1110000101010 /
1'
#2260000
0'
#2265000
b101000000 -
b101000000 .
b11111 2
b1111010100000 ,
b1110101100000 /
1'
#2270000
0'
#2275000
b101001010 -
b101001010 .
b100000 2
b1111111101010 ,
b1111010100000 /
1'
#2280000
0'
#2285000
b101010100 -
b101010100 .
b100001 2
b10000100111110 ,
b1111111101010 /
1'
#2290000
0'
#2295000
b101011110 -
b101011110 .
b100010 2
b10001010011100 ,
b10000100111110 /
1'
#2300000
0'
#2305000
b101101000 -
b101101000 .
b100011 2
b10010000000100 ,
b10001010011100 /
1'
#2310000
0'
#2315000
b101110010 -
b101110010 .
b100100 2
b10010101110110 ,
b10010000000100 /
1'
#2320000
0'
#2325000
b101111100 -
b101111100 .
b100101 2
b10011011110010 ,
b10010101110110 /
1'
#2330000
0'
#2335000
b110000110 -
b110000110 .
b100110 2
b10100001111000 ,
b10011011110010 /
1'
#2340000
0'
#2345000
b110010000 -
b110010000 .
b100111 2
b10101000001000 ,
b10100001111000 /
1'
#2350000
0'
#2355000
b110011010 -
b110011010 .
b101000 2
b10101110100010 ,
b10101000001000 /
1'
#2360000
0'
#2365000
b110100100 -
b110100100 .
b101001 2
b10110101000110 ,
b10101110100010 /
1'
#2370000
0'
#2375000
b110101110 -
b110101110 .
b101010 2
b10111011110100 ,
b10110101000110 /
1'
#2380000
0'
#2385000
b110111000 -
b110111000 .
b101011 2
b11000010101100 ,
b10111011110100 /
1'
#2390000
0'
#2395000
b111000010 -
b111000010 .
b101100 2
b11001001101110 ,
b11000010101100 /
1'
#2400000
0'
#2405000
b111001100 -
b111001100 .
b101101 2
b11010000111010 ,
b11001001101110 /
1'
#2410000
0'
#2415000
b111010110 -
b111010110 .
b101110 2
b11011000010000 ,
b11010000111010 /
1'
#2420000
0'
#2425000
b111100000 -
b111100000 .
b101111 2
b11011111110000 ,
b11011000010000 /
1'
#2430000
0'
#2435000
b111101010 -
b111101010 .
b110000 2
b11100111011010 ,
b11011111110000 /
1'
#2440000
0'
#2445000
b111110100 -
b111110100 .
b110001 2
b11101111001110 ,
b11100111011010 /
1'
#2450000
0'
#2455000
b111111110 -
b111111110 .
b110010 2
b11110111001100 ,
b11101111001110 /
1'
#2460000
0'
#2465000
b1000001000 -
b1000001000 .
b110011 2
b11111111010100 ,
b11110111001100 /
1'
#2470000
0'
#2475000
b1000010010 -
b1000010010 .
b110100 2
b100000111100110 ,
b11111111010100 /
1'
#2480000
0'
#2485000
b1000011100 -
b1000011100 .
b110101 2
b100010000000010 ,
b100000111100110 /
1'
#2490000
0'
#2495000
b1000100110 -
b1000100110 .
b110110 2
b100011000101000 ,
b100010000000010 /
1'
#2500000
0'
