Willthon/GAN_test/discriminator_layer3_test.vcd
$date
	Sun Nov 30 10:17:58 2025
$end
$version
	Icarus Verilog
$end
$timescale
	1ps
$end
$scope module layer3_discriminator_tb $end
$var wire 16 ! score_out [15:0] $end
$var wire 1 " done $end
$var wire 1 # decision_real $end
$var reg 1 $ clk $end
$var reg 512 % flat_input [511:0] $end
$var reg 1 & rst $end
$var reg 1 ' start $end
$var integer 32 ( i_pack [31:0] $end
$var integer 32 ) k [31:0] $end
$scope function q8_8_to_real $end
$var reg 16 * val [15:0] $end
$upscope $end
$scope function real_to_q8_8 $end
$var real 1 + val $end
$upscope $end
$scope function sigmoid $end
$var real 1 , exp_neg_x $end
$var real 1 - x $end
$upscope $end
$scope module uut $end
$var wire 1 $ clk $end
$var wire 512 . flat_input_flat [511:0] $end
$var wire 1 & rst $end
$var wire 1 ' start $end
$var wire 32 / total_sum [31:0] $end
$var wire 32 0 biased_sum [31:0] $end
$var reg 1 # decision_real $end
$var reg 1 " done $end
$var reg 32 1 pipeline_reg1 [31:0] $end
$var reg 32 2 pipeline_reg2 [31:0] $end
$var reg 16 3 score_out [15:0] $end
$var reg 1 4 start_delay1 $end
$var reg 1 5 start_delay2 $end
$scope begin add1[0] $end
$var parameter 2 6 i $end
$upscope $end
$scope begin add1[1] $end
$var parameter 2 7 i $end
$upscope $end
$scope begin add1[2] $end
$var parameter 3 8 i $end
$upscope $end
$scope begin add1[3] $end
$var parameter 3 9 i $end
$upscope $end
$scope begin add1[4] $end
$var parameter 4 : i $end
$upscope $end
$scope begin add1[5] $end
$var parameter 4 ; i $end
$upscope $end
$scope begin add1[6] $end
$var parameter 4 < i $end
$upscope $end
$scope begin add1[7] $end
$var parameter 4 = i $end
$upscope $end
$scope begin add1[8] $end
$var parameter 5 > i $end
$upscope $end
$scope begin add1[9] $end
$var parameter 5 ? i $end
$upscope $end
$scope begin add1[10] $end
$var parameter 5 @ i $end
$upscope $end
$scope begin add1[11] $end
$var parameter 5 A i $end
$upscope $end
$scope begin add1[12] $end
$var parameter 5 B i $end
$upscope $end
$scope begin add1[13] $end
$var parameter 5 C i $end
$upscope $end
$scope begin add1[14] $end
$var parameter 5 D i $end
$upscope $end
$scope begin add1[15] $end
$var parameter 5 E i $end
$upscope $end
$scope begin add2[0] $end
$var parameter 2 F i $end
$upscope $end
$scope begin add2[1] $end
$var parameter 2 G i $end
$upscope $end
$scope begin add2[2] $end
$var parameter 3 H i $end
$upscope $end
$scope begin add2[3] $end
$var parameter 3 I i $end
$upscope $end
$scope begin add2[4] $end
$var parameter 4 J i $end
$upscope $end
$scope begin add2[5] $end
$var parameter 4 K i $end
$upscope $end
$scope begin add2[6] $end
$var parameter 4 L i $end
$upscope $end
$scope begin add2[7] $end
$var parameter 4 M i $end
$upscope $end
$scope begin add3[0] $end
$var parameter 2 N i $end
$upscope $end
$scope begin add3[1] $end
$var parameter 2 O i $end
$upscope $end
$scope begin add3[2] $end
$var parameter 3 P i $end
$upscope $end
$scope begin add3[3] $end
$var parameter 3 Q i $end
$upscope $end
$scope begin add4[0] $end
$var parameter 2 R i $end
$upscope $end
$scope begin add4[1] $end
$var parameter 2 S i $end
$upscope $end
$scope begin mult_gen[0] $end
$var wire 16 T input_val [15:0] $end
$var parameter 2 U i $end
$upscope $end
$scope begin mult_gen[1] $end
$var wire 16 V input_val [15:0] $end
$var parameter 2 W i $end
$upscope $end
$scope begin mult_gen[2] $end
$var wire 16 X input_val [15:0] $end
$var parameter 3 Y i $end
$upscope $end
$scope begin mult_gen[3] $end
$var wire 16 Z input_val [15:0] $end
$var parameter 3 [ i $end
$upscope $end
$scope begin mult_gen[4] $end
$var wire 16 \ input_val [15:0] $end
$var parameter 4 ] i $end
$upscope $end
$scope begin mult_gen[5] $end
$var wire 16 ^ input_val [15:0] $end
$var parameter 4 _ i $end
$upscope $end
$scope begin mult_gen[6] $end
$var wire 16 ` input_val [15:0] $end
$var parameter 4 a i $end
$upscope $end
$scope begin mult_gen[7] $end
$var wire 16 b input_val [15:0] $end
$var parameter 4 c i $end
$upscope $end
$scope begin mult_gen[8] $end
$var wire 16 d input_val [15:0] $end
$var parameter 5 e i $end
$upscope $end
$scope begin mult_gen[9] $end
$var wire 16 f input_val [15:0] $end
$var parameter 5 g i $end
$upscope $end
$scope begin mult_gen[10] $end
$var wire 16 h input_val [15:0] $end
$var parameter 5 i i $end
$upscope $end
$scope begin mult_gen[11] $end
$var wire 16 j input_val [15:0] $end
$var parameter 5 k i $end
$upscope $end
$scope begin mult_gen[12] $end
$var wire 16 l input_val [15:0] $end
$var parameter 5 m i $end
$upscope $end
$scope begin mult_gen[13] $end
$var wire 16 n input_val [15:0] $end
$var parameter 5 o i $end
$upscope $end
$scope begin mult_gen[14] $end
$var wire 16 p input_val [15:0] $end
$var parameter 5 q i $end
$upscope $end
$scope begin mult_gen[15] $end
$var wire 16 r input_val [15:0] $end
$var parameter 5 s i $end
$upscope $end
$scope begin mult_gen[16] $end
$var wire 16 t input_val [15:0] $end
$var parameter 6 u i $end
$upscope $end
$scope begin mult_gen[17] $end
$var wire 16 v input_val [15:0] $end
$var parameter 6 w i $end
$upscope $end
$scope begin mult_gen[18] $end
$var wire 16 x input_val [15:0] $end
$var parameter 6 y i $end
$upscope $end
$scope begin mult_gen[19] $end
$var wire 16 z input_val [15:0] $end
$var parameter 6 { i $end
$upscope $end
$scope begin mult_gen[20] $end
$var wire 16 | input_val [15:0] $end
$var parameter 6 } i $end
$upscope $end
$scope begin mult_gen[21] $end
$var wire 16 ~ input_val [15:0] $end
$var parameter 6 !" i $end
$upscope $end
$scope begin mult_gen[22] $end
$var wire 16 "" input_val [15:0] $end
$var parameter 6 #" i $end
$upscope $end
$scope begin mult_gen[23] $end
$var wire 16 $" input_val [15:0] $end
$var parameter 6 %" i $end
$upscope $end
$scope begin mult_gen[24] $end
$var wire 16 &" input_val [15:0] $end
$var parameter 6 '" i $end
$upscope $end
$scope begin mult_gen[25] $end
$var wire 16 (" input_val [15:0] $end
$var parameter 6 )" i $end
$upscope $end
$scope begin mult_gen[26] $end
$var wire 16 *" input_val [15:0] $end
$var parameter 6 +" i $end
$upscope $end
$scope begin mult_gen[27] $end
$var wire 16 ," input_val [15:0] $end
$var parameter 6 -" i $end
$upscope $end
$scope begin mult_gen[28] $end
$var wire 16 ." input_val [15:0] $end
$var parameter 6 /" i $end
$upscope $end
$scope begin mult_gen[29] $end
$var wire 16 0" input_val [15:0] $end
$var parameter 6 1" i $end
$upscope $end
$scope begin mult_gen[30] $end
$var wire 16 2" input_val [15:0] $end
$var parameter 6 3" i $end
$upscope $end
$scope begin mult_gen[31] $end
$var wire 16 4" input_val [15:0] $end
$var parameter 6 5" i $end
$upscope $end
$upscope $end
$upscope $end
$enddefinitions $end
$comment Show the parameter values. $end
$dumpall
b11111 5"
b11110 3"
b11101 1"
b11100 /"
b11011 -"
b11010 +"
b11001 )"
b11000 '"
b10111 %"
b10110 #"
b10101 !"
b10100 }
b10011 {
b10010 y
b10001 w
b10000 u
b1111 s
b1110 q
b1101 o
b1100 m
b1011 k
b1010 i
b1001 g
b1000 e
b111 c
b110 a
b101 _
b100 ]
b11 [
b10 Y
b1 W
b0 U
b1 S
b0 R
b11 Q
b10 P
b1 O
b0 N
b111 M
b110 L
b101 K
b100 J
b11 I
b10 H
b1 G
b0 F
b1111 E
b1110 D
b1101 C
b1100 B
b1011 A
b1010 @
b1001 ?
b1000 >
b111 =
b110 <
b101 ;
b100 :
b11 9
b10 8
b1 7
b0 6
$end
#0
$dumpvars
bx 4"
bx 2"
bx 0"
bx ."
bx ,"
bx *"
bx ("
bx &"
bx $"
bx ""
bx ~
bx |
bx z
bx x
bx v
bx t
bx r
bx p
bx n
bx l
bx j
bx h
bx f
bx d
bx b
bx `
bx ^
bx \
bx Z
bx X
bx V
bx T
05
04
b0 3
b0 2
b0 1
bx 0
bx /
bx .
r0 -
r0 ,
r0 +
bx *
bx )
bx (
0'
1&
bx %
0$
0#
0"
b0 !
$end
#5000
1$
#10000
0$
#15000
1$
#20000
b11111111111111100111010000000000 0
b0 /
b0 4"
b0 2"
b0 0"
b0 ."
b0 ,"
b0 *"
b0 ("
b0 &"
b0 $"
b0 ""
b0 ~
b0 |
b0 z
b0 x
b0 v
b0 t
b0 r
b0 p
b0 n
b0 l
b0 j
b0 h
b0 f
b0 d
b0 b
b0 `
b0 ^
b0 \
b0 Z
b0 X
b0 V
b0 T
b0 %
b0 .
b100000 (
0$
b100000 )
0&
#25000
14
b11111111111111100111010000000000 1
1'
1$
#30000
0$
#35000
15
b11111111111111100111010000000000 2
04
0'
1$
#40000
0$
#45000
1"
b1111111001110100 !
b1111111001110100 3
05
1$
#50000
0$
#55000
0"
1$
#56000
b110010 4"
b110010 2"
b110010 0"
b110010 ."
b110010 ,"
b110010 *"
b110010 ("
b110010 &"
b110010 $"
b110010 ""
b110010 ~
b110010 |
b110010 z
b110010 x
b110010 v
b110010 t
b110010 r
b110010 p
b110010 n
b110010 l
b110010 j
b110010 h
b110010 f
b110010 d
b110010 b
b110010 `
b110010 ^
b110010 \
b110010 Z
b110010 X
b110010 V
b11111111111111101000011100100100 0
b1001100100100 /
b110010 T
b1100100000000000110010000000000011001000000000001100100000000000110010000000000011001000000000001100100000000000110010000000000011001000000000001100100000000000110010000000000011001000000000001100100000000000110010000000000011001000000000001100100000000000110010000000000011001000000000001100100000000000110010000000000011001000000000001100100000000000110010000000000011001000000000001100100000000000110010000000000011001000000000001100100000000000110010000000000011001000000000001100100000000000110010 %
b1100100000000000110010000000000011001000000000001100100000000000110010000000000011001000000000001100100000000000110010000000000011001000000000001100100000000000110010000000000011001000000000001100100000000000110010000000000011001000000000001100100000000000110010000000000011001000000000001100100000000000110010000000000011001000000000001100100000000000110010000000000011001000000000001100100000000000110010000000000011001000000000001100100000000000110010000000000011001000000000001100100000000000110010 .
b100000 (
b100000 )
r0.1755380736612351 +
r4.696769818323661 ,
r-1.546875 -
b1111111001110100 *
#60000
0$
#65000
14
b11111111111111101000011100100100 1
1'
1$
#70000
0$
#75000
15
b11111111111111101000011100100100 2
04
0'
1$
#80000
0$
#85000
1"
b1111111010000111 !
b1111111010000111 3
05
1$
#90000
0$
#95000
0"
1$
#96000
b110010000000000 4"
b110010000000000 2"
b110010000000000 0"
b110010000000000 ."
b110010000000000 ,"
b110010000000000 *"
b110010000000000 ("
b110010000000000 &"
b110010000000000 $"
b110010000000000 ""
b110010000000000 ~
b110010000000000 |
b110010000000000 z
b110010000000000 x
b110010000000000 v
b110010000000000 t
b110010000000000 r
b110010000000000 p
b110010000000000 n
b110010000000000 l
b110010000000000 j
b110010000000000 h
b110010000000000 f
b110010000000000 d
b110010000000000 b
b110010000000000 `
b110010000000000 ^
b110010000000000 \
b110010000000000 Z
b110010000000000 X
b110010000000000 V
b1001001011110000000000 0
b1001100100100000000000 /
b110010000000000 T
b1100100000000000110010000000000011001000000000001100100000000000110010000000000011001000000000001100100000000000110010000000000011001000000000001100100000000000110010000000000011001000000000001100100000000000110010000000000011001000000000001100100000000000110010000000000011001000000000001100100000000000110010000000000011001000000000001100100000000000110010000000000011001000000000001100100000000000110010000000000011001000000000001100100000000000110010000000000011001000000000001100100000000000110010000000000 %
b1100100000000000110010000000000011001000000000001100100000000000110010000000000011001000000000001100100000000000110010000000000011001000000000001100100000000000110010000000000011001000000000001100100000000000110010000000000011001000000000001100100000000000110010000000000011001000000000001100100000000000110010000000000011001000000000001100100000000000110010000000000011001000000000001100100000000000110010000000000011001000000000001100100000000000110010000000000011001000000000001100100000000000110010000000000 .
b100000 (
b100000 )
#100000
0$
#105000
14
b1001001011110000000000 1
1'
1$
#110000
0$
#115000
15
b1001001011110000000000 2
04
0'
1$
#120000
0$
#125000
1"
1#
b10010010111100 !
b10010010111100 3
05
1$
#130000
0$
#135000
0"
1$
#136000
r0.9999999999999998 +
r1.112919223411195e-16 ,
r36.734375 -
b10010010111100 *
