Willthon/GAN_test/discriminator_layer3_test_new.vcd
$date
	Sat Nov 29 21:21:43 2025
$end
$version
	Icarus Verilog
$end
$timescale
	1ps
$end
$scope module layer3_discriminator_tb $end
$var wire 16 ! score_out [15:0] $end
$var wire 1 " done $end
$var wire 1 # decision_real $end
$var reg 1 $ clk $end
$var reg 4096 % flat_input [4095:0] $end
$var reg 1 & rst $end
$var reg 1 ' start $end
$var integer 32 ( i_pack [31:0] $end
$var integer 32 ) k [31:0] $end
$scope function q8_8_to_real $end
$var reg 16 * val [15:0] $end
$upscope $end
$scope module uut $end
$var wire 1 $ clk $end
$var wire 4096 + flat_input_flat [4095:0] $end
$var wire 1 & rst $end
$var wire 1 ' start $end
$var wire 32 , next_acc [31:0] $end
$var wire 32 - current_product [31:0] $end
$var wire 16 . current_input [15:0] $end
$var reg 32 / accumulator [31:0] $end
$var reg 32 0 bias_shifted [31:0] $end
$var reg 1 1 busy $end
$var reg 1 # decision_real $end
$var reg 1 " done $end
$var reg 9 2 input_idx [8:0] $end
$var reg 16 3 score_out [15:0] $end
$upscope $end
$upscope $end
$enddefinitions $end
$comment Show the parameter values. $end
$dumpall
$end
#0
$dumpvars
b0 3
b0 2
01
b0 0
b0 /
bx .
bx -
bx ,
bx +
bx *
bx )
bx (
0'
1&
bx %
0$
0#
0"
b0 !
$end
#5000
1$
#10000
0$
#15000
1$
#20000
b0 ,
b0 -
b0 .
b0 %
b0 +
b100000000 (
0$
b100000000 )
0&
#25000
11
b11111111111111100111010000000000 ,
b11111111111111100111010000000000 /
b11111111111111100111010000000000 0
1'
1$
#30000
0$
#35000
b1 2
0'
1$
#40000
0$
#45000
b10 2
1$
#50000
0$
#55000
b11 2
1$
#60000
0$
#65000
b100 2
1$
#70000
0$
#75000
b101 2
1$
#80000
0$
#85000
b110 2
1$
#90000
0$
#95000
b111 2
1$
#100000
0$
#105000
b1000 2
1$
#110000
0$
#115000
b1001 2
1$
#120000
0$
#125000
b1010 2
1$
#130000
0$
#135000
b1011 2
1$
#140000
0$
#145000
b1100 2
1$
#150000
0$
#155000
b1101 2
1$
#160000
0$
#165000
b1110 2
1$
#170000
0$
#175000
b1111 2
1$
#180000
0$
#185000
b10000 2
1$
#190000
0$
#195000
b10001 2
1$
#200000
0$
#205000
b10010 2
1$
#210000
0$
#215000
b10011 2
1$
#220000
0$
#225000
b10100 2
1$
#230000
0$
#235000
b10101 2
1$
#240000
0$
#245000
b10110 2
1$
#250000
0$
#255000
b10111 2
1$
#260000
0$
#265000
b11000 2
1$
#270000
0$
#275000
b11001 2
1$
#280000
0$
#285000
b11010 2
1$
#290000
0$
#295000
b11011 2
1$
#300000
0$
#305000
b11100 2
1$
#310000
0$
#315000
b11101 2
1$
#320000
0$
#325000
b11110 2
1$
#330000
0$
#335000
b11111 2
1$
#340000
0$
#345000
bx ,
bx -
b100000 2
1$
#350000
0$
#355000
b100001 2
bx /
1$
#360000
0$
#365000
b100010 2
1$
#370000
0$
#375000
b100011 2
1$
#380000
0$
#385000
b100100 2
1$
#390000
0$
#395000
b100101 2
1$
#400000
0$
#405000
b100110 2
1$
#410000
0$
#415000
b100111 2
1$
#420000
0$
#425000
b101000 2
1$
#430000
0$
#435000
b101001 2
1$
#440000
0$
#445000
b101010 2
1$
#450000
0$
#455000
b101011 2
1$
#460000
0$
#465000
b101100 2
1$
#470000
0$
#475000
b101101 2
1$
#480000
0$
#485000
b101110 2
1$
#490000
0$
#495000
b101111 2
1$
#500000
0$
#505000
b110000 2
1$
#510000
0$
#515000
b110001 2
1$
#520000
0$
#525000
b110010 2
1$
#530000
0$
#535000
b110011 2
1$
#540000
0$
#545000
b110100 2
1$
#550000
0$
#555000
b110101 2
1$
#560000
0$
#565000
b110110 2
1$
#570000
0$
#575000
b110111 2
1$
#580000
0$
#585000
b111000 2
1$
#590000
0$
#595000
b111001 2
1$
#600000
0$
#605000
b111010 2
1$
#610000
0$
#615000
b111011 2
1$
#620000
0$
#625000
b111100 2
1$
#630000
0$
#635000
b111101 2
1$
#640000
0$
#645000
b111110 2
1$
#650000
0$
#655000
b111111 2
1$
#660000
0$
#665000
b1000000 2
1$
#670000
0$
#675000
b1000001 2
1$
#680000
0$
#685000
b1000010 2
1$
#690000
0$
#695000
b1000011 2
1$
#700000
0$
#705000
b1000100 2
1$
#710000
0$
#715000
b1000101 2
1$
#720000
0$
#725000
b1000110 2
1$
#730000
0$
#735000
b1000111 2
1$
#740000
0$
#745000
b1001000 2
1$
#750000
0$
#755000
b1001001 2
1$
#760000
0$
#765000
b1001010 2
1$
#770000
0$
#775000
b1001011 2
1$
#780000
0$
#785000
b1001100 2
1$
#790000
0$
#795000
b1001101 2
1$
#800000
0$
#805000
b1001110 2
1$
#810000
0$
#815000
b1001111 2
1$
#820000
0$
#825000
b1010000 2
1$
#830000
0$
#835000
b1010001 2
1$
#840000
0$
#845000
b1010010 2
1$
#850000
0$
#855000
b1010011 2
1$
#860000
0$
#865000
b1010100 2
1$
#870000
0$
#875000
b1010101 2
1$
#880000
0$
#885000
b1010110 2
1$
#890000
0$
#895000
b1010111 2
1$
#900000
0$
#905000
b1011000 2
1$
#910000
0$
#915000
b1011001 2
1$
#920000
0$
#925000
b1011010 2
1$
#930000
0$
#935000
b1011011 2
1$
#940000
0$
#945000
b1011100 2
1$
#950000
0$
#955000
b1011101 2
1$
#960000
0$
#965000
b1011110 2
1$
#970000
0$
#975000
b1011111 2
1$
#980000
0$
#985000
b1100000 2
1$
#990000
0$
#995000
b1100001 2
1$
#1000000
0$
#1005000
b1100010 2
1$
#1010000
0$
#1015000
b1100011 2
1$
#1020000
0$
#1025000
b1100100 2
1$
#1030000
0$
#1035000
b1100101 2
1$
#1040000
0$
#1045000
b1100110 2
1$
#1050000
0$
#1055000
b1100111 2
1$
#1060000
0$
#1065000
b1101000 2
1$
#1070000
0$
#1075000
b1101001 2
1$
#1080000
0$
#1085000
b1101010 2
1$
#1090000
0$
#1095000
b1101011 2
1$
#1100000
0$
#1105000
b1101100 2
1$
#1110000
0$
#1115000
b1101101 2
1$
#1120000
0$
#1125000
b1101110 2
1$
#1130000
0$
#1135000
b1101111 2
1$
#1140000
0$
#1145000
b1110000 2
1$
#1150000
0$
#1155000
b1110001 2
1$
#1160000
0$
#1165000
b1110010 2
1$
#1170000
0$
#1175000
b1110011 2
1$
#1180000
0$
#1185000
b1110100 2
1$
#1190000
0$
#1195000
b1110101 2
1$
#1200000
0$
#1205000
b1110110 2
1$
#1210000
0$
#1215000
b1110111 2
1$
#1220000
0$
#1225000
b1111000 2
1$
#1230000
0$
#1235000
b1111001 2
1$
#1240000
0$
#1245000
b1111010 2
1$
#1250000
0$
#1255000
b1111011 2
1$
#1260000
0$
#1265000
b1111100 2
1$
#1270000
0$
#1275000
b1111101 2
1$
#1280000
0$
#1285000
b1111110 2
1$
#1290000
0$
#1295000
b1111111 2
1$
#1300000
0$
#1305000
b10000000 2
1$
#1310000
0$
#1315000
b10000001 2
1$
#1320000
0$
#1325000
b10000010 2
1$
#1330000
0$
#1335000
b10000011 2
1$
#1340000
0$
#1345000
b10000100 2
1$
#1350000
0$
#1355000
b10000101 2
1$
#1360000
0$
#1365000
b10000110 2
1$
#1370000
0$
#1375000
b10000111 2
1$
#1380000
0$
#1385000
b10001000 2
1$
#1390000
0$
#1395000
b10001001 2
1$
#1400000
0$
#1405000
b10001010 2
1$
#1410000
0$
#1415000
b10001011 2
1$
#1420000
0$
#1425000
b10001100 2
1$
#1430000
0$
#1435000
b10001101 2
1$
#1440000
0$
#1445000
b10001110 2
1$
#1450000
0$
#1455000
b10001111 2
1$
#1460000
0$
#1465000
b10010000 2
1$
#1470000
0$
#1475000
b10010001 2
1$
#1480000
0$
#1485000
b10010010 2
1$
#1490000
0$
#1495000
b10010011 2
1$
#1500000
0$
#1505000
b10010100 2
1$
#1510000
0$
#1515000
b10010101 2
1$
#1520000
0$
#1525000
b10010110 2
1$
#1530000
0$
#1535000
b10010111 2
1$
#1540000
0$
#1545000
b10011000 2
1$
#1550000
0$
#1555000
b10011001 2
1$
#1560000
0$
#1565000
b10011010 2
1$
#1570000
0$
#1575000
b10011011 2
1$
#1580000
0$
#1585000
b10011100 2
1$
#1590000
0$
#1595000
b10011101 2
1$
#1600000
0$
#1605000
b10011110 2
1$
#1610000
0$
#1615000
b10011111 2
1$
#1620000
0$
#1625000
b10100000 2
1$
#1630000
0$
#1635000
b10100001 2
1$
#1640000
0$
#1645000
b10100010 2
1$
#1650000
0$
#1655000
b10100011 2
1$
#1660000
0$
#1665000
b10100100 2
1$
#1670000
0$
#1675000
b10100101 2
1$
#1680000
0$
#1685000
b10100110 2
1$
#1690000
0$
#1695000
b10100111 2
1$
#1700000
0$
#1705000
b10101000 2
1$
#1710000
0$
#1715000
b10101001 2
1$
#1720000
0$
#1725000
b10101010 2
1$
#1730000
0$
#1735000
b10101011 2
1$
#1740000
0$
#1745000
b10101100 2
1$
#1750000
0$
#1755000
b10101101 2
1$
#1760000
0$
#1765000
b10101110 2
1$
#1770000
0$
#1775000
b10101111 2
1$
#1780000
0$
#1785000
b10110000 2
1$
#1790000
0$
#1795000
b10110001 2
1$
#1800000
0$
#1805000
b10110010 2
1$
#1810000
0$
#1815000
b10110011 2
1$
#1820000
0$
#1825000
b10110100 2
1$
#1830000
0$
#1835000
b10110101 2
1$
#1840000
0$
#1845000
b10110110 2
1$
#1850000
0$
#1855000
b10110111 2
1$
#1860000
0$
#1865000
b10111000 2
1$
#1870000
0$
#1875000
b10111001 2
1$
#1880000
0$
#1885000
b10111010 2
1$
#1890000
0$
#1895000
b10111011 2
1$
#1900000
0$
#1905000
b10111100 2
1$
#1910000
0$
#1915000
b10111101 2
1$
#1920000
0$
#1925000
b10111110 2
1$
#1930000
0$
#1935000
b10111111 2
1$
#1940000
0$
#1945000
b11000000 2
1$
#1950000
0$
#1955000
b11000001 2
1$
#1960000
0$
#1965000
b11000010 2
1$
#1970000
0$
#1975000
b11000011 2
1$
#1980000
0$
#1985000
b11000100 2
1$
#1990000
0$
#1995000
b11000101 2
1$
#2000000
0$
#2005000
b11000110 2
1$
#2010000
0$
#2015000
b11000111 2
1$
#2020000
0$
#2025000
b11001000 2
1$
#2030000
0$
#2035000
b11001001 2
1$
#2040000
0$
#2045000
b11001010 2
1$
#2050000
0$
#2055000
b11001011 2
1$
#2060000
0$
#2065000
b11001100 2
1$
#2070000
0$
#2075000
b11001101 2
1$
#2080000
0$
#2085000
b11001110 2
1$
#2090000
0$
#2095000
b11001111 2
1$
#2100000
0$
#2105000
b11010000 2
1$
#2110000
0$
#2115000
b11010001 2
1$
#2120000
0$
#2125000
b11010010 2
1$
#2130000
0$
#2135000
b11010011 2
1$
#2140000
0$
#2145000
b11010100 2
1$
#2150000
0$
#2155000
b11010101 2
1$
#2160000
0$
#2165000
b11010110 2
1$
#2170000
0$
#2175000
b11010111 2
1$
#2180000
0$
#2185000
b11011000 2
1$
#2190000
0$
#2195000
b11011001 2
1$
#2200000
0$
#2205000
b11011010 2
1$
#2210000
0$
#2215000
b11011011 2
1$
#2220000
0$
#2225000
b11011100 2
1$
#2230000
0$
#2235000
b11011101 2
1$
#2240000
0$
#2245000
b11011110 2
1$
#2250000
0$
#2255000
b11011111 2
1$
#2260000
0$
#2265000
b11100000 2
1$
#2270000
0$
#2275000
b11100001 2
1$
#2280000
0$
#2285000
b11100010 2
1$
#2290000
0$
#2295000
b11100011 2
1$
#2300000
0$
#2305000
b11100100 2
1$
#2310000
0$
#2315000
b11100101 2
1$
#2320000
0$
#2325000
b11100110 2
1$
#2330000
0$
#2335000
b11100111 2
1$
#2340000
0$
#2345000
b11101000 2
1$
#2350000
0$
#2355000
b11101001 2
1$
#2360000
0$
#2365000
b11101010 2
1$
#2370000
0$
#2375000
b11101011 2
1$
#2380000
0$
#2385000
b11101100 2
1$
#2390000
0$
#2395000
b11101101 2
1$
#2400000
0$
#2405000
b11101110 2
1$
#2410000
0$
#2415000
b11101111 2
1$
#2420000
0$
#2425000
b11110000 2
1$
#2430000
0$
#2435000
b11110001 2
1$
#2440000
0$
#2445000
b11110010 2
1$
#2450000
0$
#2455000
b11110011 2
1$
#2460000
0$
#2465000
b11110100 2
1$
#2470000
0$
#2475000
b11110101 2
1$
#2480000
0$
#2485000
b11110110 2
1$
#2490000
0$
#2495000
b11110111 2
1$
#2500000
0$
#2505000
b11111000 2
1$
#2510000
0$
#2515000
b11111001 2
1$
#2520000
0$
#2525000
b11111010 2
1$
#2530000
0$
#2535000
b11111011 2
1$
#2540000
0$
#2545000
b11111100 2
1$
#2550000
0$
#2555000
b11111101 2
1$
#2560000
0$
#2565000
b11111110 2
1$
#2570000
0$
#2575000
b11111111 2
1$
#2580000
0$
#2585000
1"
01
x#
bx !
bx 3
1$
#2586000
b1101011 .
b1101011111111111000111111111111011101010000000000110110000000001100100111111111111011111111111100001011111111111111101100000000100011101111111110100001000000001010100100000000110010101111111111100100000000001000010011111111101111010000000000110010111111111111001000000000111110101111111110000110000000000111111111111111101101000000000010010010000000001011100100000000110001000000000010111010000000001011011011111111110001110000000001101011000000000001001100000000110010100000000011001000111111110111100111111111001110000000000010011110111111111000110100000000001010100000000000101010111111111001111111111111111001100000000000001110111111111010000100000000101010011111111110101000000000000100111011111111100010101111111111101100111111110111001100000000010010111111111110011000111111111100010100000000110000011111111100101001111111110011010100000000111101011111111101010000000000001000011011111111101000010000000000010111111111110110000111111111111110100000000001111001111111111100111111111111110110110000000001111110000000000111100000000000100001100000000011011100000000000111110111111111101101100000000000100110000000001100000000000000100101100000000000110111111111111011100111111111000110100000000011010101000000001111101000000000010111100000000010111010111111110111001111111111011100000000000001100110111111110011110111111111110110100000000010000110111111110001110000000000001010011111111111111101000000000001110011111111000010001111111100101110111111111100011111111111001011010000000000101000000000001000100011111111101101000000000001101001000000001111011100000000000001001111111101000110000000001001010100000000101101100000000011001010111111110111011011111111011011010000000011011001111111110100110100000000110110111111111101011001111111110000010000000000100100110000000010010100111111111011100000000000011110011111111100111000000000001011011011111111000010101111111101100111000000000100111000000000010101101111111111000011111111111111110111111111100110100000000011011100000000000000111000000000101010110000000000101010111111111101000000000000010001000000000001111001111111111101111111111111101101011111111101100101111111111101101011111111111011010000000000101001000000000101101011111111111001101111111111001011000000001111011100000000010001001111111101011111111111111011001111111111001011111111111110100011000000000111001111111111001001100000000011111010111111111001110011111111100011101111111110000110000000000101100000000000001010101111111100111111000000000100100100000000010110111111111101111000000000001000010111111111110100110000000000011111000000000011100100000000011011011111111101111110000000000001001000000000001111011111111101110111000000001100100011111111110000100000000000001100000000001001011011111111010100011111111111010111111111111101000011111111010010010000000010001001111111110101101111111111010111001111111110011111111111111011011100000000111110000000000010001111000000001001111100000000010011000000000001100010000000001101100100000000111100010000000000010101111111110111111000000000001110101111111100111011000000000100111100000000100001011111111101110001111111110000101100000000001010101111111110111100000000001010111000000000110001100000000010110110000000001110101111111111100010010000000001111000111111111101100000000000010000010000000010001010000000001111001011111111001111001111111111001010000000000000101000000000001000111111111111001111000000000001110111111111101011101111111100000010111111111101010100000000011010111111111101010011111111110000110111111111000100111111111110010110111111111001110100000000101010100000000000100000111111111000000000000000000010101111111101100011111111110110010111111111001011011111111110111101000000000101110011111111110001011111111111101000111111111100111000000000111100100000000010001111111111110001001011111111011101110000000011100101111111111010101011111111110001011111111111000110000000001111100100000000100011000000000011101101000000000011110100000000011101100000000000001101000000000000000111111111000100101111111101100101000000001000110100000000000011011111111101100011111111110000100111111111100000010000000000100100 %
b1101011111111111000111111111111011101010000000000110110000000001100100111111111111011111111111100001011111111111111101100000000100011101111111110100001000000001010100100000000110010101111111111100100000000001000010011111111101111010000000000110010111111111111001000000000111110101111111110000110000000000111111111111111101101000000000010010010000000001011100100000000110001000000000010111010000000001011011011111111110001110000000001101011000000000001001100000000110010100000000011001000111111110111100111111111001110000000000010011110111111111000110100000000001010100000000000101010111111111001111111111111111001100000000000001110111111111010000100000000101010011111111110101000000000000100111011111111100010101111111111101100111111110111001100000000010010111111111110011000111111111100010100000000110000011111111100101001111111110011010100000000111101011111111101010000000000001000011011111111101000010000000000010111111111110110000111111111111110100000000001111001111111111100111111111111110110110000000001111110000000000111100000000000100001100000000011011100000000000111110111111111101101100000000000100110000000001100000000000000100101100000000000110111111111111011100111111111000110100000000011010101000000001111101000000000010111100000000010111010111111110111001111111111011100000000000001100110111111110011110111111111110110100000000010000110111111110001110000000000001010011111111111111101000000000001110011111111000010001111111100101110111111111100011111111111001011010000000000101000000000001000100011111111101101000000000001101001000000001111011100000000000001001111111101000110000000001001010100000000101101100000000011001010111111110111011011111111011011010000000011011001111111110100110100000000110110111111111101011001111111110000010000000000100100110000000010010100111111111011100000000000011110011111111100111000000000001011011011111111000010101111111101100111000000000100111000000000010101101111111111000011111111111111110111111111100110100000000011011100000000000000111000000000101010110000000000101010111111111101000000000000010001000000000001111001111111111101111111111111101101011111111101100101111111111101101011111111111011010000000000101001000000000101101011111111111001101111111111001011000000001111011100000000010001001111111101011111111111111011001111111111001011111111111110100011000000000111001111111111001001100000000011111010111111111001110011111111100011101111111110000110000000000101100000000000001010101111111100111111000000000100100100000000010110111111111101111000000000001000010111111111110100110000000000011111000000000011100100000000011011011111111101111110000000000001001000000000001111011111111101110111000000001100100011111111110000100000000000001100000000001001011011111111010100011111111111010111111111111101000011111111010010010000000010001001111111110101101111111111010111001111111110011111111111111011011100000000111110000000000010001111000000001001111100000000010011000000000001100010000000001101100100000000111100010000000000010101111111110111111000000000001110101111111100111011000000000100111100000000100001011111111101110001111111110000101100000000001010101111111110111100000000001010111000000000110001100000000010110110000000001110101111111111100010010000000001111000111111111101100000000000010000010000000010001010000000001111001011111111001111001111111111001010000000000000101000000000001000111111111111001111000000000001110111111111101011101111111100000010111111111101010100000000011010111111111101010011111111110000110111111111000100111111111110010110111111111001110100000000101010100000000000100000111111111000000000000000000010101111111101100011111111110110010111111111001011011111111110111101000000000101110011111111110001011111111111101000111111111100111000000000111100100000000010001111111111110001001011111111011101110000000011100101111111111010101011111111110001011111111111000110000000001111100100000000100011000000000011101101000000000011110100000000011101100000000000001101000000000000000111111111000100101111111101100101000000001000110100000000000011011111111101100011111111110000100111111111100000010000000000100100 +
b100000000 (
b100000000 )
#2590000
0$
#2595000
0"
11
b11111111111111100110111100111000 ,
b11111111111111100111010000000000 /
b100100 .
b11111111111111111111101100111000 -
b0 2
1'
1$
#2600000
0$
#2605000
b1111111110000001 .
b11111111111111111110000110111101 -
b1 2
b11111111111111100101000011110101 ,
b11111111111111100110111100111000 /
0'
1$
#2610000
0$
#2615000
b11111111111111111100010100100101 -
b1111111100001001 .
b10 2
b11111111111111100001011000011010 ,
b11111111111111100101000011110101 /
1$
#2620000
0$
#2625000
b1111111101100011 .
b11111111111111111110101100100110 -
b11 2
b11111111111111100000000101000000 ,
b11111111111111100001011000011010 /
1$
#2630000
0$
#2635000
b1101 .
b11111111111111111111110111111000 -
b100 2
b11111111111111011111111100111000 ,
b11111111111111100000000101000000 /
1$
#2640000
0$
#2645000
b10001101 .
b11111111111111111110010100000011 -
b101 2
b11111111111111011110010000111011 ,
b11111111111111011111111100111000 /
1$
#2650000
0$
#2655000
b1111111101100101 .
b11111111111111111110111001110001 -
b110 2
b11111111111111011101001010101100 ,
b11111111111111011110010000111011 /
1$
#2660000
0$
#2665000
b1111111100010010 .
b10011111111010 -
b111 2
b11111111111111011111101010100110 ,
b11111111111111011101001010101100 /
1$
#2670000
0$
#2675000
b1 .
b11111111111111111111111111011010 -
b1000 2
b11111111111111011111101010000000 ,
b11111111111111011111101010100110 /
1$
#2680000
0$
#2685000
b1101 .
b111010100 -
b1001 2
b11111111111111011111110001010100 ,
b11111111111111011111101010000000 /
1$
#2690000
0$
#2695000
b1110110 .
b10000100110000 -
b1010 2
b11111111111111100001110110000100 ,
b11111111111111011111110001010100 /
1$
#2700000
0$
#2705000
b111101 .
b11111111111111111111010111111110 -
b1011 2
b11111111111111100001001110000010 ,
b11111111111111100001110110000100 /
1$
#2710000
0$
#2715000
b11101101 .
b11111111111111111101101111100101 -
b1100 2
b11111111111111011110111101100111 ,
b11111111111111100001001110000010 /
1$
#2720000
0$
#2725000
b10001100 .
b11111111111111111110011011011000 -
b1101 2
b11111111111111011101011000111111 ,
b11111111111111011110111101100111 /
1$
#2730000
0$
#2735000
b11111001 .
b11010010000110 -
b1110 2
b11111111111111100000101011000101 ,
b11111111111111011101011000111111 /
1$
#2740000
0$
#2745000
b1111111111000110 .
b11111111111111111111100011000000 -
b1111 2
b11111111111111100000001110000101 ,
b11111111111111100000101011000101 /
1$
#2750000
0$
#2755000
b1111111111000101 .
b11111111111111111111001101010011 -
b10000 2
b11111111111111011111011011011000 ,
b11111111111111100000001110000101 /
1$
#2760000
0$
#2765000
b1111111110101010 .
b110101110000 -
b10001 2
b11111111111111100000010001001000 ,
b11111111111111011111011011011000 /
1$
#2770000
0$
#2775000
b11100101 .
b11111111111111111101110100011101 -
b10010 2
b11111111111111011110000101100101 ,
b11111111111111100000010001001000 /
1$
#2780000
0$
#2785000
b1111111101110111 .
b110101100001 -
b10011 2
b11111111111111011110111011000110 ,
b11111111111111011110000101100101 /
1$
#2790000
0$
#2795000
b1111111100010010 .
b11000101000110 -
b10100 2
b11111111111111100010000000001100 ,
b11111111111111011110111011000110 /
1$
#2800000
0$
#2805000
b10001111 .
b11111111111111111110111111001101 -
b10101 2
b11111111111111100000111111011001 ,
b11111111111111100010000000001100 /
1$
#2810000
0$
#2815000
b11110010 .
b11111111111111111100010001110010 -
b10110 2
b11111111111111011101010001001011 ,
b11111111111111100000111111011001 /
1$
#2820000
0$
#2825000
b1111111111001110 .
b11111111111111111111011101101000 -
b10111 2
b11111111111111011100101110110011 ,
b11111111111111011101010001001011 /
1$
#2830000
0$
#2835000
b1111111111101000 .
b11111111111111111111101011110000 -
b11000 2
b11111111111111011100011010100011 ,
b11111111111111011100101110110011 /
1$
#2840000
0$
#2845000
b1111111111000101 .
b100111101001 -
b11001 2
b11111111111111011101000010001100 ,
b11111111111111011100011010100011 /
1$
#2850000
0$
#2855000
b1011100 .
b1010011011000 -
b11010 2
b11111111111111011110010101100100 ,
b11111111111111011101000010001100 /
1$
#2860000
0$
#2865000
b1111111110111101 .
b11111111111111111111000100010101 -
b11011 2
b11111111111111011101011001111001 ,
b11111111111111011110010101100100 /
1$
#2870000
0$
#2875000
b1111111100101101 .
b11111111111111111110100110111111 -
b11100 2
b11111111111111011100000000111000 ,
b11111111111111011101011001111001 /
1$
#2880000
0$
#2885000
b1111111101100101 .
b11111111111111111110001001010101 -
b11101 2
b11111111111111011010001010001101 ,
b11111111111111011100000000111000 /
1$
#2890000
0$
#2895000
b1111111101100011 .
b1011010110001 -
b11110 2
b11111111111111011011100100111110 ,
b11111111111111011010001010001101 /
1$
#2900000
0$
#2905000
b1010 .
b101011110 -
b11111 2
b11111111111111011011101010011100 ,
b11111111111111011011100100111110 /
1$
#2910000
0$
#2915000
b1111111110000000 .
bx -
b100000 2
bx ,
b11111111111111011011101010011100 /
1$
#2920000
0$
#2925000
b100000 .
b100001 2
bx /
1$
#2930000
0$
#2935000
b10101010 .
b100010 2
1$
#2940000
0$
#2945000
b1111111110011101 .
b100011 2
1$
#2950000
0$
#2955000
b1111111110010110 .
b100100 2
1$
#2960000
0$
#2965000
b1111111100010011 .
b100101 2
1$
#2970000
0$
#2975000
b1111111100001101 .
b100110 2
1$
#2980000
0$
#2985000
b1111111101010011 .
b100111 2
1$
#2990000
0$
#2995000
b1101011 .
b101000 2
1$
#3000000
0$
#3005000
b1111111111010101 .
b101001 2
1$
#3010000
0$
#3015000
b1111111100000010 .
b101010 2
1$
#3020000
0$
#3025000
b1111111110101110 .
b101011 2
1$
#3030000
0$
#3035000
b11101 .
b101100 2
1$
#3040000
0$
#3045000
b1111111111001111 .
b101101 2
1$
#3050000
0$
#3055000
b100011 .
b101110 2
1$
#3060000
0$
#3065000
b1010 .
b101111 2
1$
#3070000
0$
#3075000
b1111111111001010 .
b110000 2
1$
#3080000
0$
#3085000
b1111111100111100 .
b110001 2
1$
#3090000
0$
#3095000
b11110010 .
b110010 2
1$
#3100000
0$
#3105000
b10001010 .
b110011 2
1$
#3110000
0$
#3115000
b1000001 .
b110100 2
1$
#3120000
0$
#3125000
b1111111111011000 .
b110101 2
1$
#3130000
0$
#3135000
b1111000 .
b110110 2
1$
#3140000
0$
#3145000
b1111111110001001 .
b110111 2
1$
#3150000
0$
#3155000
b11101011 .
b111000 2
1$
#3160000
0$
#3165000
b10110110 .
b111001 2
1$
#3170000
0$
#3175000
b11000110 .
b111010 2
1$
#3180000
0$
#3185000
b10101110 .
b111011 2
1$
#3190000
0$
#3195000
b1111111110111100 .
b111100 2
1$
#3200000
0$
#3205000
b101010 .
b111101 2
1$
#3210000
0$
#3215000
b1111111100001011 .
b111110 2
1$
#3220000
0$
#3225000
b1111111101110001 .
b111111 2
1$
#3230000
0$
#3235000
b10000101 .
b1000000 2
1$
#3240000
0$
#3245000
b1001111 .
b1000001 2
1$
#3250000
0$
#3255000
b1111111100111011 .
b1000010 2
1$
#3260000
0$
#3265000
b111010 .
b1000011 2
1$
#3270000
0$
#3275000
b1111111101111110 .
b1000100 2
1$
#3280000
0$
#3285000
b10101 .
b1000101 2
1$
#3290000
0$
#3295000
b11110001 .
b1000110 2
1$
#3300000
0$
#3305000
b11011001 .
b1000111 2
1$
#3310000
0$
#3315000
b1100010 .
b1001000 2
1$
#3320000
0$
#3325000
b1001100 .
b1001001 2
1$
#3330000
0$
#3335000
b10011111 .
b1001010 2
1$
#3340000
0$
#3345000
b10001111 .
b1001011 2
1$
#3350000
0$
#3355000
b11111000 .
b1001100 2
1$
#3360000
0$
#3365000
b1111111110110111 .
b1001101 2
1$
#3370000
0$
#3375000
b1111111110011111 .
b1001110 2
1$
#3380000
0$
#3385000
b1111111101011100 .
b1001111 2
1$
#3390000
0$
#3395000
b1111111101011011 .
b1010000 2
1$
#3400000
0$
#3405000
b10001001 .
b1010001 2
1$
#3410000
0$
#3415000
b1111111101001001 .
b1010010 2
1$
#3420000
0$
#3425000
b1111111111010000 .
b1010011 2
1$
#3430000
0$
#3435000
b1111111111010111 .
b1010100 2
1$
#3440000
0$
#3445000
b1111111101010001 .
b1010101 2
1$
#3450000
0$
#3455000
b10010110 .
b1010110 2
1$
#3460000
0$
#3465000
b1100 .
b1010111 2
1$
#3470000
0$
#3475000
b1111111111000010 .
b1011000 2
1$
#3480000
0$
#3485000
b11001000 .
b1011001 2
1$
#3490000
0$
#3495000
b1111111101110111 .
b1011010 2
1$
#3500000
0$
#3505000
b111101 .
b1011011 2
1$
#3510000
0$
#3515000
b10010 .
b1011100 2
1$
#3520000
0$
#3525000
b1111111101111110 .
b1011101 2
1$
#3530000
0$
#3535000
b1101101 .
b1011110 2
1$
#3540000
0$
#3545000
b111001 .
b1011111 2
1$
#3550000
0$
#3555000
b11111 .
b1100000 2
1$
#3560000
0$
#3565000
b1111111111010011 .
b1100001 2
1$
#3570000
0$
#3575000
b10000101 .
b1100010 2
1$
#3580000
0$
#3585000
b1111111101111000 .
b1100011 2
1$
#3590000
0$
#3595000
b1011011 .
b1100100 2
1$
#3600000
0$
#3605000
b1001001 .
b1100101 2
1$
#3610000
0$
#3615000
b1111111100111111 .
b1100110 2
1$
#3620000
0$
#3625000
b101010 .
b1100111 2
1$
#3630000
0$
#3635000
b1011000 .
b1101000 2
1$
#3640000
0$
#3645000
b1111111110000110 .
b1101001 2
1$
#3650000
0$
#3655000
b1111111110001110 .
b1101010 2
1$
#3660000
0$
#3665000
b1111111110011100 .
b1101011 2
1$
#3670000
0$
#3675000
b11111010 .
b1101100 2
1$
#3680000
0$
#3685000
b1111111100100110 .
b1101101 2
1$
#3690000
0$
#3695000
b1110011 .
b1101110 2
1$
#3700000
0$
#3705000
b1111111110100011 .
b1101111 2
1$
#3710000
0$
#3715000
b1111111100101111 .
b1110000 2
1$
#3720000
0$
#3725000
b1111111110110011 .
b1110001 2
1$
#3730000
0$
#3735000
b1111111101011111 .
b1110010 2
1$
#3740000
0$
#3745000
b1000100 .
b1110011 2
1$
#3750000
0$
#3755000
b11110111 .
b1110100 2
1$
#3760000
0$
#3765000
b1111111111001011 .
b1110101 2
1$
#3770000
0$
#3775000
b1111111111100110 .
b1110110 2
1$
#3780000
0$
#3785000
b1011010 .
b1110111 2
1$
#3790000
0$
#3795000
b101001 .
b1111000 2
1$
#3800000
0$
#3805000
b1111111111101101 .
b1111001 2
1$
#3810000
0$
#3815000
b1111111111011010 .
b1111010 2
1$
#3820000
0$
#3825000
b1111111101100101 .
b1111011 2
1$
#3830000
0$
#3835000
b1111111110110101 .
b1111100 2
1$
#3840000
0$
#3845000
b1111111111011111 .
b1111101 2
1$
#3850000
0$
#3855000
b1111001 .
b1111110 2
1$
#3860000
0$
#3865000
b1000100 .
b1111111 2
1$
#3870000
0$
#3875000
b1111111111010000 .
b10000000 2
1$
#3880000
0$
#3885000
b101010 .
b10000001 2
1$
#3890000
0$
#3895000
b10101011 .
b10000010 2
1$
#3900000
0$
#3905000
b1110 .
b10000011 2
1$
#3910000
0$
#3915000
b11011100 .
b10000100 2
1$
#3920000
0$
#3925000
b1111111110011010 .
b10000101 2
1$
#3930000
0$
#3935000
b1111111111111101 .
b10000110 2
1$
#3940000
0$
#3945000
b1111111111000011 .
b10000111 2
1$
#3950000
0$
#3955000
b1010110 .
b10001000 2
1$
#3960000
0$
#3965000
b1001110 .
b10001001 2
1$
#3970000
0$
#3975000
b1111111101100111 .
b10001010 2
1$
#3980000
0$
#3985000
b1111111100001010 .
b10001011 2
1$
#3990000
0$
